// Jest Snapshot v1, https://goo.gl/fbAQLP

exports[`product in wishlist render product 1`] = `
<tr
  className="cart__product product"
>
  <td>
    <img
      alt=""
      className="product__img"
      src="/path/to/image.png"
    />
  </td>
  <td
    className="product__about"
  >
    <p>
      Bill33
      <span
        className="product__quantity"
      >
         × 
        4
      </span>
    </p>
    <p
      className="product__color"
    >
      Color: 
      color
    </p>
  </td>
  <td>
    <p
      className="product__price"
    >
      10
    </p>
  </td>
</tr>
`;
